{
  "items": [
    {
      "id": "bt-001",
      "strategyName": "SmaCrossover",
      "strategyVersion": "1.2.0",
      "parameters": {
        "fastPeriod": 10,
        "slowPeriod": 30
      },
      "startedAt": "2025-09-15T08:00:00Z",
      "completedAt": "2025-09-15T08:02:34Z",
      "durationMs": 154200,
      "totalBars": 4344,
      "metrics": {
        "totalTrades": 87,
        "winningTrades": 46,
        "losingTrades": 41,
        "netProfit": 2340.5,
        "sharpeRatio": 1.82,
        "sortinoRatio": 2.45,
        "maxDrawdownPct": 8.3,
        "winRatePct": 52.87,
        "profitFactor": 1.65,
        "averageWin": 112.3,
        "averageLoss": -78.4,
        "expectancy": 26.9
      },
      "hasCandleData": true,
      "runMode": "standalone",
      "dataSubscription": {
        "assetName": "BTCUSDT",
        "exchange": "Binance",
        "timeFrame": "01:00:00"
      },
      "backtestSettings": {
        "initialCash": 10000,
        "commissionPerTrade": 0.001,
        "slippageTicks": 1,
        "startTime": "2025-01-01T00:00:00Z",
        "endTime": "2025-06-30T23:59:59Z"
      }
    },
    {
      "id": "bt-002",
      "strategyName": "BollingerBreakout",
      "strategyVersion": "2.0.1",
      "parameters": {
        "period": 20,
        "stdDev": 2
      },
      "startedAt": "2025-10-01T14:00:00Z",
      "completedAt": "2025-10-01T14:05:12Z",
      "durationMs": 312400,
      "totalBars": 17568,
      "metrics": {
        "totalTrades": 214,
        "winningTrades": 98,
        "losingTrades": 116,
        "netProfit": -523.18,
        "sharpeRatio": -0.34,
        "sortinoRatio": -0.28,
        "maxDrawdownPct": 14.7,
        "winRatePct": 45.79,
        "profitFactor": 0.89,
        "averageWin": 85.6,
        "averageLoss": -62.1,
        "expectancy": -2.44
      },
      "hasCandleData": true,
      "runMode": "standalone",
      "dataSubscription": {
        "assetName": "ETHUSDT",
        "exchange": "Binance",
        "timeFrame": "00:15:00"
      },
      "backtestSettings": {
        "initialCash": 10000,
        "commissionPerTrade": 0.001,
        "slippageTicks": 1,
        "startTime": "2025-03-01T00:00:00Z",
        "endTime": "2025-08-31T23:59:59Z"
      }
    },
    {
      "id": "bt-003",
      "strategyName": "RsiMomentum",
      "strategyVersion": "1.0.0",
      "parameters": {
        "rsiPeriod": 14,
        "overbought": 70,
        "oversold": 30
      },
      "startedAt": "2025-11-10T09:30:00Z",
      "completedAt": "2025-11-10T09:31:05Z",
      "durationMs": 65200,
      "totalBars": 1281,
      "metrics": {
        "totalTrades": 42,
        "winningTrades": 26,
        "losingTrades": 16,
        "netProfit": 1876.33,
        "sharpeRatio": 2.14,
        "sortinoRatio": 3.01,
        "maxDrawdownPct": 6.1,
        "winRatePct": 61.9,
        "profitFactor": 2.28,
        "averageWin": 145.2,
        "averageLoss": -98.7,
        "expectancy": 44.67
      },
      "hasCandleData": true,
      "runMode": "standalone",
      "dataSubscription": {
        "assetName": "SOLUSDT",
        "exchange": "Binance",
        "timeFrame": "04:00:00"
      },
      "backtestSettings": {
        "initialCash": 5000,
        "commissionPerTrade": 0.001,
        "slippageTicks": 2,
        "startTime": "2025-04-01T00:00:00Z",
        "endTime": "2025-10-31T23:59:59Z"
      }
    },
    {
      "id": "bt-004",
      "strategyName": "MeanReversion",
      "strategyVersion": "1.1.0",
      "parameters": {
        "lookback": 50,
        "zScoreEntry": 2,
        "zScoreExit": 0.5
      },
      "startedAt": "2025-12-01T10:00:00Z",
      "completedAt": "2025-12-01T10:03:45Z",
      "durationMs": 225300,
      "totalBars": 8016,
      "metrics": {
        "totalTrades": 156,
        "winningTrades": 91,
        "losingTrades": 65,
        "netProfit": 3210.77,
        "sharpeRatio": 1.95,
        "sortinoRatio": 2.73,
        "maxDrawdownPct": 9.8,
        "winRatePct": 58.33,
        "profitFactor": 1.78,
        "averageWin": 95.4,
        "averageLoss": -71.2,
        "expectancy": 20.58
      },
      "hasCandleData": false,
      "runMode": "standalone",
      "dataSubscription": {
        "assetName": "BTCUSDT",
        "exchange": "Binance",
        "timeFrame": "01:00:00"
      },
      "backtestSettings": {
        "initialCash": 10000,
        "commissionPerTrade": 0.001,
        "slippageTicks": 1,
        "startTime": "2025-01-01T00:00:00Z",
        "endTime": "2025-11-30T23:59:59Z"
      }
    },
    {
      "id": "bt-005",
      "strategyName": "SmaCrossover",
      "strategyVersion": "1.2.0",
      "parameters": {
        "fastPeriod": 5,
        "slowPeriod": 20
      },
      "startedAt": "2025-12-15T16:00:00Z",
      "completedAt": "2025-12-15T16:01:22Z",
      "durationMs": 82100,
      "totalBars": 1098,
      "metrics": {
        "totalTrades": 63,
        "winningTrades": 29,
        "losingTrades": 34,
        "netProfit": -189.44,
        "sharpeRatio": -0.12,
        "sortinoRatio": -0.09,
        "maxDrawdownPct": 11.2,
        "winRatePct": 46.03,
        "profitFactor": 0.95,
        "averageWin": 130.8,
        "averageLoss": -105.6,
        "expectancy": -3.01
      },
      "hasCandleData": false,
      "runMode": "standalone",
      "dataSubscription": {
        "assetName": "ETHUSDT",
        "exchange": "Binance",
        "timeFrame": "04:00:00"
      },
      "backtestSettings": {
        "initialCash": 10000,
        "commissionPerTrade": 0.001,
        "slippageTicks": 1,
        "startTime": "2025-06-01T00:00:00Z",
        "endTime": "2025-12-01T23:59:59Z"
      }
    },
    {
      "id": "bt-006",
      "strategyName": "BollingerBreakout",
      "strategyVersion": "2.0.1",
      "parameters": {
        "period": 20,
        "stdDev": 2.5
      },
      "startedAt": "2026-01-05T11:00:00Z",
      "completedAt": "2026-01-05T11:08:56Z",
      "durationMs": 536200,
      "totalBars": 17568,
      "metrics": {
        "totalTrades": 189,
        "winningTrades": 103,
        "losingTrades": 86,
        "netProfit": 4567.21,
        "sharpeRatio": 1.47,
        "sortinoRatio": 2.05,
        "maxDrawdownPct": 7.6,
        "winRatePct": 54.5,
        "profitFactor": 1.52,
        "averageWin": 142.1,
        "averageLoss": -110.3,
        "expectancy": 24.17
      },
      "hasCandleData": false,
      "runMode": "standalone",
      "dataSubscription": {
        "assetName": "BTCUSDT",
        "exchange": "Binance",
        "timeFrame": "00:15:00"
      },
      "backtestSettings": {
        "initialCash": 20000,
        "commissionPerTrade": 0.0005,
        "slippageTicks": 1,
        "startTime": "2025-07-01T00:00:00Z",
        "endTime": "2025-12-31T23:59:59Z"
      }
    },
    {
      "id": "bt-007",
      "strategyName": "RsiMomentum",
      "strategyVersion": "1.0.0",
      "parameters": {
        "rsiPeriod": 21,
        "overbought": 75,
        "oversold": 25
      },
      "startedAt": "2026-01-12T07:15:00Z",
      "completedAt": "2026-01-12T07:17:30Z",
      "durationMs": 150200,
      "totalBars": 5856,
      "metrics": {
        "totalTrades": 73,
        "winningTrades": 40,
        "losingTrades": 33,
        "netProfit": 1102.65,
        "sharpeRatio": 1.21,
        "sortinoRatio": 1.68,
        "maxDrawdownPct": 10.4,
        "winRatePct": 54.79,
        "profitFactor": 1.41,
        "averageWin": 88.7,
        "averageLoss": -65.9,
        "expectancy": 15.1
      },
      "hasCandleData": false,
      "runMode": "standalone",
      "dataSubscription": {
        "assetName": "BTCUSDT",
        "exchange": "Binance",
        "timeFrame": "01:00:00"
      },
      "backtestSettings": {
        "initialCash": 10000,
        "commissionPerTrade": 0.001,
        "slippageTicks": 1,
        "startTime": "2025-05-01T00:00:00Z",
        "endTime": "2025-12-31T23:59:59Z"
      }
    },
    {
      "id": "bt-008",
      "strategyName": "MeanReversion",
      "strategyVersion": "1.1.0",
      "parameters": {
        "lookback": 30,
        "zScoreEntry": 1.5,
        "zScoreExit": 0.3
      },
      "startedAt": "2026-01-20T13:00:00Z",
      "completedAt": "2026-01-20T13:06:18Z",
      "durationMs": 378400,
      "totalBars": 16224,
      "metrics": {
        "totalTrades": 278,
        "winningTrades": 167,
        "losingTrades": 111,
        "netProfit": 2890.45,
        "sharpeRatio": 2.31,
        "sortinoRatio": 3.42,
        "maxDrawdownPct": 5.3,
        "winRatePct": 60.07,
        "profitFactor": 2.05,
        "averageWin": 52.3,
        "averageLoss": -35.1,
        "expectancy": 10.4
      },
      "hasCandleData": false,
      "runMode": "standalone",
      "dataSubscription": {
        "assetName": "SOLUSDT",
        "exchange": "Binance",
        "timeFrame": "00:15:00"
      },
      "backtestSettings": {
        "initialCash": 5000,
        "commissionPerTrade": 0.001,
        "slippageTicks": 2,
        "startTime": "2025-08-01T00:00:00Z",
        "endTime": "2026-01-15T23:59:59Z"
      }
    },
    {
      "id": "bt-009",
      "strategyName": "SmaCrossover",
      "strategyVersion": "1.2.0",
      "parameters": {
        "fastPeriod": 8,
        "slowPeriod": 21
      },
      "startedAt": "2026-01-25T09:00:00Z",
      "completedAt": "2026-01-25T09:01:48Z",
      "durationMs": 108700,
      "totalBars": 4920,
      "metrics": {
        "totalTrades": 95,
        "winningTrades": 44,
        "losingTrades": 51,
        "netProfit": -412.88,
        "sharpeRatio": -0.45,
        "sortinoRatio": -0.38,
        "maxDrawdownPct": 15.9,
        "winRatePct": 46.32,
        "profitFactor": 0.87,
        "averageWin": 78.5,
        "averageLoss": -63.2,
        "expectancy": -4.35
      },
      "hasCandleData": false,
      "runMode": "standalone",
      "dataSubscription": {
        "assetName": "SOLUSDT",
        "exchange": "Binance",
        "timeFrame": "01:00:00"
      },
      "backtestSettings": {
        "initialCash": 5000,
        "commissionPerTrade": 0.001,
        "slippageTicks": 2,
        "startTime": "2025-07-01T00:00:00Z",
        "endTime": "2026-01-20T23:59:59Z"
      }
    },
    {
      "id": "bt-010",
      "strategyName": "BollingerBreakout",
      "strategyVersion": "2.0.1",
      "parameters": {
        "period": 14,
        "stdDev": 1.8
      },
      "startedAt": "2026-02-01T15:30:00Z",
      "completedAt": "2026-02-01T15:33:22Z",
      "durationMs": 202100,
      "totalBars": 4392,
      "metrics": {
        "totalTrades": 131,
        "winningTrades": 72,
        "losingTrades": 59,
        "netProfit": 1567.9,
        "sharpeRatio": 1.33,
        "sortinoRatio": 1.89,
        "maxDrawdownPct": 8.7,
        "winRatePct": 54.96,
        "profitFactor": 1.44,
        "averageWin": 76.2,
        "averageLoss": -54.8,
        "expectancy": 11.97
      },
      "hasCandleData": false,
      "runMode": "standalone",
      "dataSubscription": {
        "assetName": "ETHUSDT",
        "exchange": "Binance",
        "timeFrame": "01:00:00"
      },
      "backtestSettings": {
        "initialCash": 10000,
        "commissionPerTrade": 0.001,
        "slippageTicks": 1,
        "startTime": "2025-08-01T00:00:00Z",
        "endTime": "2026-01-31T23:59:59Z"
      }
    },
    {
      "id": "bt-011",
      "strategyName": "RsiMomentum",
      "strategyVersion": "1.0.0",
      "parameters": {
        "rsiPeriod": 14,
        "overbought": 70,
        "oversold": 30
      },
      "startedAt": "2026-02-08T08:45:00Z",
      "completedAt": "2026-02-08T08:46:12Z",
      "durationMs": 72400,
      "totalBars": 915,
      "metrics": {
        "totalTrades": 38,
        "winningTrades": 22,
        "losingTrades": 16,
        "netProfit": 945.32,
        "sharpeRatio": 1.56,
        "sortinoRatio": 2.18,
        "maxDrawdownPct": 7.2,
        "winRatePct": 57.89,
        "profitFactor": 1.73,
        "averageWin": 104.5,
        "averageLoss": -82.3,
        "expectancy": 24.88
      },
      "hasCandleData": false,
      "runMode": "standalone",
      "dataSubscription": {
        "assetName": "ETHUSDT",
        "exchange": "Binance",
        "timeFrame": "04:00:00"
      },
      "backtestSettings": {
        "initialCash": 10000,
        "commissionPerTrade": 0.001,
        "slippageTicks": 1,
        "startTime": "2025-09-01T00:00:00Z",
        "endTime": "2026-02-01T23:59:59Z"
      }
    },
    {
      "id": "bt-012",
      "strategyName": "MeanReversion",
      "strategyVersion": "1.1.0",
      "parameters": {
        "lookback": 40,
        "zScoreEntry": 2.5,
        "zScoreExit": 0.8
      },
      "startedAt": "2026-02-15T12:00:00Z",
      "completedAt": "2026-02-15T12:01:55Z",
      "durationMs": 115300,
      "totalBars": 1500,
      "metrics": {
        "totalTrades": 52,
        "winningTrades": 33,
        "losingTrades": 19,
        "netProfit": 4123.88,
        "sharpeRatio": 2.47,
        "sortinoRatio": 3.65,
        "maxDrawdownPct": 4.8,
        "winRatePct": 63.46,
        "profitFactor": 2.55,
        "averageWin": 218.6,
        "averageLoss": -142.3,
        "expectancy": 79.31
      },
      "hasCandleData": false,
      "runMode": "standalone",
      "dataSubscription": {
        "assetName": "BTCUSDT",
        "exchange": "Binance",
        "timeFrame": "04:00:00"
      },
      "backtestSettings": {
        "initialCash": 15000,
        "commissionPerTrade": 0.0005,
        "slippageTicks": 1,
        "startTime": "2025-06-01T00:00:00Z",
        "endTime": "2026-02-10T23:59:59Z"
      }
    }
  ],
  "totalCount": 42,
  "limit": 12,
  "offset": 0,
  "hasMore": true
}
